{
    "average_height": "300",
    "average_lifespan": "1000",
    "classification": "gastropod",
    "created": "2014-12-10T17:12:50.410000Z",
    "designation": "sentient",
    "edited": "2014-12-20T21:36:42.146000Z",
    "eye_colors": "yellow, red",
    "films": [
        3,
        1
    ],
    "hair_colors": "n/a",
    "homeworld": 24,
    "id": 5,
    "language": "Huttese",
    "name": "Hutt",
    "people": [
        16
    ],
    "skin_colors": "green, brown, tan",
    "url": 5
}