{
    "average_height": "100",
    "average_lifespan": "unknown",
    "classification": "unknown",
    "created": "2014-12-20T09:57:33.128000Z",
    "designation": "sentient",
    "edited": "2014-12-20T21:36:42.173000Z",
    "eye_colors": "yellow",
    "films": [
        4
    ],
    "hair_colors": "none",
    "homeworld": 39,
    "id": 17,
    "language": "vulpterish",
    "name": "Vulptereen",
    "people": [
        48
    ],
    "skin_colors": "grey",
    "url": 17
}