{
    "birth_year": "unknown",
    "created": "2015-04-17T06:55:21.622786Z",
    "edited": "2015-04-17T06:55:21.622835Z",
    "eye_color": "brown",
    "films": [
        7
    ],
    "gender": "male",
    "hair_color": "brown",
    "height": "unknown",
    "homeworld": 28,
    "id": 86,
    "mass": "unknown",
    "name": "Poe Dameron",
    "skin_color": "light",
    "species": [
        1
    ],
    "starships": [
        77
    ],
    "url": 86,
    "vehicles": []
}