{
    "birth_year": "unknown",
    "created": "2015-04-17T06:54:01.495077Z",
    "edited": "2015-04-17T06:54:01.495128Z",
    "eye_color": "hazel",
    "films": [
        7
    ],
    "gender": "female",
    "hair_color": "brown",
    "height": "unknown",
    "homeworld": 28,
    "id": 85,
    "mass": "unknown",
    "name": "Rey",
    "skin_color": "light",
    "species": [
        1
    ],
    "starships": [],
    "url": 85,
    "vehicles": []
}