{
    "birth_year": "unknown",
    "created": "2014-12-18T11:26:18.541000Z",
    "edited": "2014-12-20T21:17:50.371000Z",
    "eye_color": "black",
    "films": [
        3
    ],
    "gender": "male",
    "hair_color": "none",
    "height": "160",
    "homeworld": 33,
    "id": 31,
    "mass": "68",
    "name": "Nien Nunb",
    "skin_color": "grey",
    "species": [
        10
    ],
    "starships": [
        10
    ],
    "url": 31,
    "vehicles": []
}