{
    "birth_year": "unknown",
    "created": "2014-12-20T09:53:15.086000Z",
    "edited": "2016-06-30T12:52:19.604868Z",
    "eye_color": "unknown",
    "films": [
        4
    ],
    "gender": "male",
    "hair_color": "none",
    "height": "79",
    "homeworld": 38,
    "id": 47,
    "mass": "15",
    "name": "Ratts Tyerell",
    "skin_color": "grey, blue",
    "species": [
        16
    ],
    "starships": [],
    "url": 47,
    "vehicles": []
}