{
    "birth_year": "unknown",
    "created": "2014-12-19T17:05:57.357000Z",
    "edited": "2014-12-20T21:17:50.377000Z",
    "eye_color": "red",
    "films": [
        5,
        4,
        6
    ],
    "gender": "male",
    "hair_color": "none",
    "height": "191",
    "homeworld": 18,
    "id": 33,
    "mass": "90",
    "name": "Nute Gunray",
    "skin_color": "mottled green",
    "species": [
        11
    ],
    "starships": [],
    "url": 33,
    "vehicles": []
}