{
    "birth_year": "112BBY",
    "created": "2014-12-10T15:10:51.357000Z",
    "edited": "2014-12-20T21:17:50.309000Z",
    "eye_color": "yellow",
    "films": [
        2,
        5,
        4,
        6,
        3,
        1
    ],
    "gender": "n/a",
    "hair_color": "n/a",
    "height": "167",
    "homeworld": 1,
    "id": 2,
    "mass": "75",
    "name": "C-3PO",
    "skin_color": "gold",
    "species": [
        2
    ],
    "starships": [],
    "url": 2,
    "vehicles": []
}