{
    "birth_year": "72BBY",
    "created": "2014-12-20T10:12:30.846000Z",
    "edited": "2014-12-20T21:17:50.420000Z",
    "eye_color": "brown",
    "films": [
        5,
        4,
        6
    ],
    "gender": "male",
    "hair_color": "none",
    "height": "188",
    "homeworld": 42,
    "id": 51,
    "mass": "84",
    "name": "Mace Windu",
    "skin_color": "dark",
    "species": [
        1
    ],
    "starships": [],
    "url": 51,
    "vehicles": []
}