{
    "birth_year": "unknown",
    "created": "2014-12-19T17:45:01.522000Z",
    "edited": "2014-12-20T21:17:50.392000Z",
    "eye_color": "blue",
    "films": [
        4
    ],
    "gender": "male",
    "hair_color": "brown",
    "height": "183",
    "homeworld": 8,
    "id": 39,
    "mass": "unknown",
    "name": "Ric Oli\u00e9",
    "skin_color": "fair",
    "species": [],
    "starships": [
        40
    ],
    "url": 39,
    "vehicles": []
}