{
    "birth_year": "64BBY",
    "created": "2014-12-10T16:26:56.138000Z",
    "edited": "2014-12-20T21:17:50.330000Z",
    "eye_color": "blue",
    "films": [
        6,
        1
    ],
    "gender": "male",
    "hair_color": "auburn, grey",
    "height": "180",
    "homeworld": 21,
    "id": 12,
    "mass": "unknown",
    "name": "Wilhuff Tarkin",
    "skin_color": "fair",
    "species": [
        1
    ],
    "starships": [],
    "url": 12,
    "vehicles": []
}