{
    "climate": "polluted",
    "created": "2014-12-10T16:26:54.384000Z",
    "diameter": "13490",
    "edited": "2014-12-20T20:58:18.454000Z",
    "films": [],
    "gravity": "1 standard",
    "id": 21,
    "name": "Eriadu",
    "orbital_period": "360",
    "population": "22000000000",
    "residents": [
        12
    ],
    "rotation_period": "24",
    "surface_water": "unknown",
    "terrain": "cityscape",
    "url": 21
}