{
    "climate": "frigid",
    "created": "2014-12-20T17:27:41.286000Z",
    "diameter": "unknown",
    "edited": "2014-12-20T20:58:18.516000Z",
    "films": [],
    "gravity": "unknown",
    "id": 55,
    "name": "Ojom",
    "orbital_period": "unknown",
    "population": "500000000",
    "residents": [
        71
    ],
    "rotation_period": "unknown",
    "surface_water": "100",
    "terrain": "oceans, glaciers",
    "url": 55
}