{
    "climate": "temperate",
    "created": "2014-12-20T17:57:47.420000Z",
    "diameter": "13800",
    "edited": "2014-12-20T20:58:18.519000Z",
    "films": [],
    "gravity": "1",
    "id": 57,
    "name": "Muunilinst",
    "orbital_period": "412",
    "population": "5000000000",
    "residents": [
        77
    ],
    "rotation_period": "28",
    "surface_water": "25",
    "terrain": "plains, forests, hills, mountains",
    "url": 57
}