{
    "climate": "temperate",
    "created": "2014-12-10T11:50:29.349000Z",
    "diameter": "4900",
    "edited": "2014-12-20T20:58:18.429000Z",
    "films": [
        3
    ],
    "gravity": "0.85 standard",
    "id": 7,
    "name": "Endor",
    "orbital_period": "402",
    "population": "30000000",
    "residents": [
        30
    ],
    "rotation_period": "18",
    "surface_water": "8",
    "terrain": "forests, mountains, lakes",
    "url": 7
}