{
    "climate": "hot",
    "created": "2014-12-10T17:03:28.110000Z",
    "diameter": "7549",
    "edited": "2014-12-20T20:58:18.458000Z",
    "films": [],
    "gravity": "1 standard",
    "id": 23,
    "name": "Rodia",
    "orbital_period": "305",
    "population": "1300000000",
    "residents": [
        15
    ],
    "rotation_period": "29",
    "surface_water": "60",
    "terrain": "jungles, oceans, urban, swamps",
    "url": 23
}