{
    "climate": "temperate",
    "created": "2014-12-10T17:23:29.896000Z",
    "diameter": "9830",
    "edited": "2014-12-20T20:58:18.461000Z",
    "films": [],
    "gravity": "1 standard",
    "id": 25,
    "name": "Dantooine",
    "orbital_period": "378",
    "population": "1000",
    "residents": [],
    "rotation_period": "25",
    "surface_water": "unknown",
    "terrain": "oceans, savannas, mountains, grasslands",
    "url": 25
}