{
    "climate": "unknown",
    "created": "2015-04-17T06:55:57.556495Z",
    "diameter": "unknown",
    "edited": "2015-04-17T06:55:57.556551Z",
    "films": [
        7
    ],
    "gravity": "unknown",
    "id": 61,
    "name": "Jakku",
    "orbital_period": "unknown",
    "population": "unknown",
    "residents": [],
    "rotation_period": "unknown",
    "surface_water": "unknown",
    "terrain": "deserts",
    "url": 61
}