{
    "climate": "unknown",
    "created": "2014-12-20T10:26:05.788000Z",
    "diameter": "unknown",
    "edited": "2014-12-20T20:58:18.497000Z",
    "films": [],
    "gravity": "unknown",
    "id": 45,
    "name": "Iridonia",
    "orbital_period": "413",
    "population": "unknown",
    "residents": [
        54
    ],
    "rotation_period": "29",
    "surface_water": "unknown",
    "terrain": "rocky canyons, acid pools",
    "url": 45
}