{
    "climate": "temperate",
    "created": "2014-12-20T10:12:28.980000Z",
    "diameter": "10120",
    "edited": "2014-12-20T20:58:18.491000Z",
    "films": [],
    "gravity": "0.98",
    "id": 42,
    "name": "Haruun Kal",
    "orbital_period": "383",
    "population": "705300",
    "residents": [
        51
    ],
    "rotation_period": "25",
    "surface_water": "unknown",
    "terrain": "toxic cloudsea, plateaus, volcanoes",
    "url": 42
}