{
    "climate": "unknown",
    "created": "2014-12-20T10:28:31.117000Z",
    "diameter": "unknown",
    "edited": "2014-12-20T20:58:18.498000Z",
    "films": [],
    "gravity": "unknown",
    "id": 46,
    "name": "Tholoth",
    "orbital_period": "unknown",
    "population": "unknown",
    "residents": [],
    "rotation_period": "unknown",
    "surface_water": "unknown",
    "terrain": "unknown",
    "url": 46
}