{
    "cargo_capacity": "65",
    "consumables": "2 days",
    "cost_in_credits": "unknown",
    "created": "2014-12-10T16:33:52.860000Z",
    "crew": "1",
    "edited": "2014-12-22T18:21:15.606149Z",
    "films": [
        2,
        3,
        1
    ],
    "id": 8,
    "length": "6.4",
    "manufacturer": "Sienar Fleet Systems",
    "max_atmosphering_speed": "1200",
    "model": "Twin Ion Engine/Ln Starfighter",
    "name": "TIE/LN starfighter",
    "passengers": "0",
    "pilots": [],
    "url": 8,
    "vehicle_class": "starfighter"
}