{
    "cargo_capacity": "1000",
    "consumables": "7 days",
    "cost_in_credits": "unknown",
    "created": "2014-12-20T18:25:44.912000Z",
    "crew": "2",
    "edited": "2014-12-22T18:21:16.366134Z",
    "films": [
        5,
        6
    ],
    "id": 56,
    "length": "20",
    "manufacturer": "Haor Chall Engineering",
    "max_atmosphering_speed": "880",
    "model": "Sheathipede-class transport shuttle",
    "name": "Neimoidian shuttle",
    "passengers": "6",
    "pilots": [],
    "url": 56,
    "vehicle_class": "transport"
}