{
    "cargo_capacity": "12000",
    "consumables": "unknown",
    "cost_in_credits": "138000",
    "created": "2014-12-19T17:12:04.400000Z",
    "crew": "4",
    "edited": "2014-12-22T18:21:15.975171Z",
    "films": [
        4
    ],
    "id": 34,
    "length": "31",
    "manufacturer": "Baktoid Armor Workshop",
    "max_atmosphering_speed": "35",
    "model": "Multi-Troop Transport",
    "name": "Multi-Troop Transport",
    "passengers": "112",
    "pilots": [],
    "url": 34,
    "vehicle_class": "repulsorcraft"
}