{
    "cargo_capacity": "5",
    "consumables": "unknown",
    "cost_in_credits": "10550",
    "created": "2014-12-10T16:13:52.586000Z",
    "crew": "1",
    "edited": "2014-12-22T18:21:15.583700Z",
    "films": [
        1
    ],
    "id": 7,
    "length": "3.4",
    "manufacturer": "SoroSuub Corporation",
    "max_atmosphering_speed": "250",
    "model": "X-34 landspeeder",
    "name": "X-34 landspeeder",
    "passengers": "1",
    "pilots": [],
    "url": 7,
    "vehicle_class": "repulsorcraft"
}