{
    "cargo_capacity": "unknown",
    "consumables": "unknown",
    "cost_in_credits": "unknown",
    "created": "2014-12-20T17:19:19.991000Z",
    "crew": "1",
    "edited": "2014-12-22T18:21:16.150194Z",
    "films": [
        5
    ],
    "id": 46,
    "length": "6.23",
    "manufacturer": "Narglatch AirTech prefabricated kit",
    "max_atmosphering_speed": "720",
    "model": "XJ-6 airspeeder",
    "name": "XJ-6 airspeeder",
    "passengers": "1",
    "pilots": [
        11
    ],
    "url": 46,
    "vehicle_class": "airspeeder"
}