{
    "cargo_capacity": "unknown",
    "consumables": "unknown",
    "cost_in_credits": "unknown",
    "created": "2014-12-20T19:50:58.559000Z",
    "crew": "2",
    "edited": "2014-12-22T18:21:16.450655Z",
    "films": [
        6
    ],
    "id": 62,
    "length": "unknown",
    "manufacturer": "unknown",
    "max_atmosphering_speed": "unknown",
    "model": "Fire suppression speeder",
    "name": "Emergency Firespeeder",
    "passengers": "unknown",
    "pilots": [],
    "url": 62,
    "vehicle_class": "fire suppression ship"
}