{
    "cargo_capacity": "2000000",
    "consumables": "Live food tanks",
    "cost_in_credits": "285000",
    "created": "2014-12-18T10:44:14.217000Z",
    "crew": "26",
    "edited": "2014-12-22T18:21:15.807906Z",
    "films": [
        3
    ],
    "id": 24,
    "length": "30",
    "manufacturer": "Ubrikkian Industries Custom Vehicle Division",
    "max_atmosphering_speed": "100",
    "model": "Modified Luxury Sail Barge",
    "name": "Sail barge",
    "passengers": "500",
    "pilots": [],
    "url": 24,
    "vehicle_class": "sail barge"
}