{
    "cargo_capacity": "20",
    "consumables": "none",
    "cost_in_credits": "14750",
    "created": "2014-12-20T20:21:55.648000Z",
    "crew": "2",
    "edited": "2014-12-22T18:21:16.547708Z",
    "films": [
        6
    ],
    "id": 70,
    "length": "7",
    "manufacturer": "Appazanna Engineering Works",
    "max_atmosphering_speed": "310",
    "model": "Raddaugh Gnasp fluttercraft",
    "name": "Raddaugh Gnasp fluttercraft",
    "passengers": "0",
    "pilots": [],
    "url": 70,
    "vehicle_class": "air speeder"
}