{
    "MGLT": "70",
    "cargo_capacity": "70000",
    "consumables": "1 month",
    "cost_in_credits": "unknown",
    "created": "2014-12-15T13:00:56.332000Z",
    "crew": "1",
    "edited": "2014-12-22T17:35:44.716273Z",
    "films": [
        2,
        5
    ],
    "hyperdrive_rating": "3.0",
    "id": 21,
    "length": "21.5",
    "manufacturer": "Kuat Systems Engineering",
    "max_atmosphering_speed": "1000",
    "model": "Firespray-31-class patrol and attack",
    "name": "Slave 1",
    "passengers": "6",
    "pilots": [
        22
    ],
    "starship_class": "Patrol craft",
    "url": 21
}