{
    "MGLT": "120",
    "cargo_capacity": "40",
    "consumables": "1 week",
    "cost_in_credits": "175000",
    "created": "2014-12-18T11:16:34.542000Z",
    "crew": "1",
    "edited": "2014-12-22T17:35:44.978754Z",
    "films": [
        3
    ],
    "hyperdrive_rating": "1.0",
    "id": 28,
    "length": "9.6",
    "manufacturer": "Alliance Underground Engineering, Incom Corporation",
    "max_atmosphering_speed": "1300",
    "model": "RZ-1 A-wing Interceptor",
    "name": "A-wing",
    "passengers": "0",
    "pilots": [
        29
    ],
    "starship_class": "Starfighter",
    "url": 28
}