{
    "MGLT": "80",
    "cargo_capacity": "110",
    "consumables": "1 week",
    "cost_in_credits": "134999",
    "created": "2014-12-12T11:00:39.817000Z",
    "crew": "2",
    "edited": "2014-12-22T17:35:44.479706Z",
    "films": [
        2,
        3,
        1
    ],
    "hyperdrive_rating": "1.0",
    "id": 11,
    "length": "14",
    "manufacturer": "Koensayr Manufacturing",
    "max_atmosphering_speed": "1000km",
    "model": "BTL Y-wing",
    "name": "Y-wing",
    "passengers": "0",
    "pilots": [],
    "starship_class": "assault starfighter",
    "url": 11
}