{
    "MGLT": "unknown",
    "cargo_capacity": "unknown",
    "consumables": "unknown",
    "cost_in_credits": "unknown",
    "created": "2014-12-20T17:46:46.847000Z",
    "crew": "4",
    "edited": "2014-12-22T17:35:45.158969Z",
    "films": [
        5
    ],
    "hyperdrive_rating": "0.9",
    "id": 49,
    "length": "47.9",
    "manufacturer": "Theed Palace Space Vessel Engineering Corps",
    "max_atmosphering_speed": "8000",
    "model": "H-type Nubian yacht",
    "name": "H-type Nubian yacht",
    "passengers": "unknown",
    "pilots": [
        35
    ],
    "starship_class": "yacht",
    "url": 49
}