{
    "MGLT": "unknown",
    "cargo_capacity": "unknown",
    "consumables": "unknown",
    "cost_in_credits": "unknown",
    "created": "2014-12-20T19:55:15.396000Z",
    "crew": "3",
    "edited": "2014-12-22T17:35:45.258859Z",
    "films": [
        6
    ],
    "hyperdrive_rating": "0.5",
    "id": 64,
    "length": "29.2",
    "manufacturer": "Theed Palace Space Vessel Engineering Corps/Nubia Star Drives, Incorporated",
    "max_atmosphering_speed": "1050",
    "model": "J-type star skiff",
    "name": "Naboo star skiff",
    "passengers": "3",
    "pilots": [
        10,
        35
    ],
    "starship_class": "yacht",
    "url": 64
}